"filename", "language", "C++", "comment", "blank", "total"
"f:\dev\libview-gl\LibView\src\LibView\NamespaceDocumentation.cpp", "C++", 0, 0, 1, 1
"f:\dev\libview-gl\LibView\src\LibView\core\DebugLog.h", "C++", 21, 0, 13, 34
"f:\dev\libview-gl\LibView\src\LibView\core\LibFileIndex.h", "C++", 131, 78, 53, 262
"f:\dev\libview-gl\LibView\src\LibView\core\LibViewEndTesting.h", "C++", 5, 0, 1, 6
"f:\dev\libview-gl\LibView\src\LibView\core\LibViewTesting.h", "C++", 5, 0, 1, 6
"f:\dev\libview-gl\LibView\src\LibView\core\Macros.h", "C++", 5, 10, 7, 22
"f:\dev\libview-gl\LibView\src\LibView\core\config.h", "C++", 3, 0, 1, 4
"f:\dev\libview-gl\LibView\src\LibView\exception\ExceptionMacros.h", "C++", 11, 0, 3, 14
"f:\dev\libview-gl\LibView\src\LibView\exception\FileCloseException.cpp", "C++", 19, 0, 3, 22
"f:\dev\libview-gl\LibView\src\LibView\exception\FileCloseException.h", "C++", 16, 17, 10, 43
"f:\dev\libview-gl\LibView\src\LibView\exception\FileOpenException.cpp", "C++", 19, 0, 4, 23
"f:\dev\libview-gl\LibView\src\LibView\exception\FileOpenException.h", "C++", 16, 17, 8, 41
"f:\dev\libview-gl\LibView\src\LibView\exception\LibViewException.cpp", "C++", 22, 0, 3, 25
"f:\dev\libview-gl\LibView\src\LibView\exception\LibViewException.h", "C++", 23, 25, 15, 63
"f:\dev\libview-gl\LibView\src\LibView\exception\MapIndexAlreadyPresentException.cpp", "C++", 19, 0, 3, 22
"f:\dev\libview-gl\LibView\src\LibView\exception\MapIndexAlreadyPresentException.h", "C++", 16, 18, 8, 42
"f:\dev\libview-gl\LibView\src\LibView\exception\MapIndexNotPresentException.cpp", "C++", 19, 0, 3, 22
"f:\dev\libview-gl\LibView\src\LibView\exception\MapIndexNotPresentException.h", "C++", 16, 18, 8, 42
"f:\dev\libview-gl\LibView\src\LibView\exception\model\AttributeIndexAlreadyFoundException.cpp", "C++", 8, 0, 0, 8
"f:\dev\libview-gl\LibView\src\LibView\exception\model\AttributeIndexAlreadyFoundException.h", "C++", 10, 0, 1, 11
"f:\dev\libview-gl\LibView\src\LibView\exception\model\AttributeIndexNotFoundException.cpp", "C++", 19, 0, 1, 20
"f:\dev\libview-gl\LibView\src\LibView\exception\model\AttributeIndexNotFoundException.h", "C++", 16, 17, 8, 41
"f:\dev\libview-gl\LibView\src\LibView\exception\model\AttributePathAlreadyFoundException.cpp", "C++", 19, 0, 1, 20
"f:\dev\libview-gl\LibView\src\LibView\exception\model\AttributePathAlreadyFoundException.h", "C++", 16, 17, 9, 42
"f:\dev\libview-gl\LibView\src\LibView\exception\model\AttributePathNotFoundException.cpp", "C++", 19, 0, 1, 20
"f:\dev\libview-gl\LibView\src\LibView\exception\model\AttributePathNotFoundException.h", "C++", 16, 17, 9, 42
"f:\dev\libview-gl\LibView\src\LibView\exception\model\LibFileIndexNotFoundException.cpp", "C++", 8, 0, 1, 9
"f:\dev\libview-gl\LibView\src\LibView\exception\model\LibFileIndexNotFoundException.h", "C++", 10, 0, 1, 11
"f:\dev\libview-gl\LibView\src\LibView\exception\model\parser\MoreGroupsClosedThanStartedException.cpp", "C++", 8, 0, 0, 8
"f:\dev\libview-gl\LibView\src\LibView\exception\model\parser\MoreGroupsClosedThanStartedException.h", "C++", 10, 0, 1, 11
"f:\dev\libview-gl\LibView\src\LibView\exception\model\parser\MoreThanOneUppestGroupException.cpp", "C++", 8, 0, 0, 8
"f:\dev\libview-gl\LibView\src\LibView\exception\model\parser\MoreThanOneUppestGroupException.h", "C++", 10, 0, 1, 11
"f:\dev\libview-gl\LibView\src\LibView\exception\model\parser\OutsideOfGroupDeclarationException.cpp", "C++", 8, 0, 0, 8
"f:\dev\libview-gl\LibView\src\LibView\exception\model\parser\OutsideOfGroupDeclarationException.h", "C++", 10, 0, 1, 11
"f:\dev\libview-gl\LibView\src\LibView\exception\model\parser\WordNotAllowedAtThisPositionException.cpp", "C++", 8, 0, 0, 8
"f:\dev\libview-gl\LibView\src\LibView\exception\model\parser\WordNotAllowedAtThisPositionException.h", "C++", 10, 0, 1, 11
"f:\dev\libview-gl\LibView\src\LibView\exception\model\reader\NoNextCharacterException.cpp", "C++", 8, 0, 0, 8
"f:\dev\libview-gl\LibView\src\LibView\exception\model\reader\NoNextCharacterException.h", "C++", 10, 0, 1, 11
"f:\dev\libview-gl\LibView\src\LibView\exception\model\reader\NotASCIICharacterException.cpp", "C++", 8, 0, 1, 9
"f:\dev\libview-gl\LibView\src\LibView\exception\model\reader\NotASCIICharacterException.h", "C++", 10, 0, 1, 11
"f:\dev\libview-gl\LibView\src\LibView\exception\model\tokenizer\NoNextTokenAvailableException.cpp", "C++", 8, 0, 0, 8
"f:\dev\libview-gl\LibView\src\LibView\exception\model\tokenizer\NoNextTokenAvailableException.h", "C++", 10, 0, 2, 12
"f:\dev\libview-gl\LibView\src\LibView\exception\model\tokenizer\TriedRetrievingEmptyVariableException.cpp", "C++", 8, 0, 0, 8
"f:\dev\libview-gl\LibView\src\LibView\exception\model\tokenizer\TriedRetrievingEmptyVariableException.h", "C++", 10, 0, 1, 11
"f:\dev\libview-gl\LibView\src\LibView\exception\model\tokenizer\WordNotAllowedException.cpp", "C++", 8, 0, 0, 8
"f:\dev\libview-gl\LibView\src\LibView\exception\model\tokenizer\WordNotAllowedException.h", "C++", 10, 0, 2, 12
"f:\dev\libview-gl\LibView\src\LibView\exception\presenter\NoFilePinnedException.cpp", "C++", 8, 0, 5, 13
"f:\dev\libview-gl\LibView\src\LibView\exception\presenter\NoFilePinnedException.h", "C++", 10, 0, 3, 13
"f:\dev\libview-gl\LibView\src\LibView\main.cpp", "C++", 16, 0, 12, 28
"f:\dev\libview-gl\LibView\src\LibView\moc\qt\moc_Qt_AttributeDisplayRow.cpp", "C++", 75, 8, 13, 96
"f:\dev\libview-gl\LibView\src\LibView\moc\qt\moc_Qt_AttributeSelectionBox.cpp", "C++", 75, 8, 13, 96
"f:\dev\libview-gl\LibView\src\LibView\moc\qt\moc_Qt_AttributeVisibilityToggle.cpp", "C++", 75, 8, 13, 96
"f:\dev\libview-gl\LibView\src\LibView\moc\qt\moc_Qt_CalculateSigmaButton.cpp", "C++", 75, 8, 13, 96
"f:\dev\libview-gl\LibView\src\LibView\moc\qt\moc_Qt_ContentDisplay.cpp", "C++", 75, 8, 13, 96
"f:\dev\libview-gl\LibView\src\LibView\moc\qt\moc_Qt_CreateNewLvfButton.cpp", "C++", 75, 8, 13, 96
"f:\dev\libview-gl\LibView\src\LibView\moc\qt\moc_Qt_DeltaPercentToggle.cpp", "C++", 75, 8, 13, 96
"f:\dev\libview-gl\LibView\src\LibView\moc\qt\moc_Qt_ExportCsvButton.cpp", "C++", 75, 8, 13, 96
"f:\dev\libview-gl\LibView\src\LibView\moc\qt\moc_Qt_GroupDisplay.cpp", "C++", 75, 8, 13, 96
"f:\dev\libview-gl\LibView\src\LibView\moc\qt\moc_Qt_HistogramDataDisplay.cpp", "C++", 75, 8, 13, 96
"f:\dev\libview-gl\LibView\src\LibView\moc\qt\moc_Qt_LibFileDataColumn.cpp", "C++", 75, 8, 13, 96
"f:\dev\libview-gl\LibView\src\LibView\moc\qt\moc_Qt_LibFileDataDisplay.cpp", "C++", 75, 8, 13, 96
"f:\dev\libview-gl\LibView\src\LibView\moc\qt\moc_Qt_LibFileHeader.cpp", "C++", 75, 8, 13, 96
"f:\dev\libview-gl\LibView\src\LibView\moc\qt\moc_Qt_LibFileSelectionBox.cpp", "C++", 75, 8, 13, 96
"f:\dev\libview-gl\LibView\src\LibView\moc\qt\moc_Qt_LibFileSelectionComboBox.cpp", "C++", 75, 8, 13, 96
"f:\dev\libview-gl\LibView\src\LibView\moc\qt\moc_Qt_LibFileVisibilityToggle.cpp", "C++", 75, 8, 13, 96
"f:\dev\libview-gl\LibView\src\LibView\moc\qt\moc_Qt_LoadLibFileButton.cpp", "C++", 75, 8, 13, 96
"f:\dev\libview-gl\LibView\src\LibView\moc\qt\moc_Qt_MainTabBar.cpp", "C++", 75, 8, 13, 96
"f:\dev\libview-gl\LibView\src\LibView\moc\qt\moc_Qt_MergeAndCreateNewFileButton.cpp", "C++", 75, 8, 13, 96
"f:\dev\libview-gl\LibView\src\LibView\moc\qt\moc_Qt_PinButton.cpp", "C++", 75, 8, 13, 96
"f:\dev\libview-gl\LibView\src\LibView\moc\qt\moc_Qt_PresetDataBox.cpp", "C++", 75, 8, 13, 96
"f:\dev\libview-gl\LibView\src\LibView\moc\qt\moc_Qt_PresetDataRow.cpp", "C++", 75, 8, 13, 96
"f:\dev\libview-gl\LibView\src\LibView\moc\qt\moc_Qt_PresetDisplayOverview.cpp", "C++", 75, 8, 13, 96
"f:\dev\libview-gl\LibView\src\LibView\moc\qt\moc_Qt_PresetSelectionBox.cpp", "C++", 75, 8, 13, 96
"f:\dev\libview-gl\LibView\src\LibView\moc\qt\moc_Qt_PresetTitle.cpp", "C++", 75, 8, 13, 96
"f:\dev\libview-gl\LibView\src\LibView\moc\qt\moc_Qt_PresetVisibilityToggle.cpp", "C++", 75, 8, 13, 96
"f:\dev\libview-gl\LibView\src\LibView\moc\qt\moc_Qt_RemoveButton.cpp", "C++", 75, 8, 13, 96
"f:\dev\libview-gl\LibView\src\LibView\moc\qt\moc_Qt_SearchBar.cpp", "C++", 75, 8, 13, 96
"f:\dev\libview-gl\LibView\src\LibView\moc\qt\moc_Qt_SelectGraphTypeComboBox.cpp", "C++", 75, 8, 13, 96
"f:\dev\libview-gl\LibView\src\LibView\moc\qt\moc_Qt_SideMenu.cpp", "C++", 75, 8, 13, 96
"f:\dev\libview-gl\LibView\src\LibView\moc\view\moc_AttributeVisibilityToggleTreeItemModel.cpp", "C++", 98, 10, 15, 123
"f:\dev\libview-gl\LibView\src\LibView\moc\view\moc_LibFileSelectionComboBox.cpp", "C++", 98, 10, 15, 123
"f:\dev\libview-gl\LibView\src\LibView\moc\view\moc_LibFileVisibilityToggle.cpp", "C++", 98, 10, 15, 123
"f:\dev\libview-gl\LibView\src\LibView\moc\view\moc_LoadLibFileButton.cpp", "C++", 102, 10, 15, 127
"f:\dev\libview-gl\LibView\src\LibView\moc\view\moc_PresetButton.cpp", "C++", 98, 10, 15, 123
"f:\dev\libview-gl\LibView\src\LibView\moc\view\moc_RemoveButton.cpp", "C++", 98, 10, 15, 123
"f:\dev\libview-gl\LibView\src\LibView\moc\view\moc_SearchBar.cpp", "C++", 98, 10, 15, 123
"f:\dev\libview-gl\LibView\src\LibView\model\AHolder.cpp", "C++", 44, 0, 16, 60
"f:\dev\libview-gl\LibView\src\LibView\model\AHolder.h", "C++", 32, 49, 19, 100
"f:\dev\libview-gl\LibView\src\LibView\model\AObserver.cpp", "C++", 7, 10, 5, 22
"f:\dev\libview-gl\LibView\src\LibView\model\AObserver.h", "C++", 12, 8, 4, 24
"f:\dev\libview-gl\LibView\src\LibView\model\APreset.h", "C++", 39, 0, 17, 56
"f:\dev\libview-gl\LibView\src\LibView\model\AttributeHolder.cpp", "C++", 97, 2, 33, 132
"f:\dev\libview-gl\LibView\src\LibView\model\AttributeHolder.h", "C++", 24, 30, 24, 78
"f:\dev\libview-gl\LibView\src\LibView\model\AttributeMap.cpp", "C++", 130, 13, 50, 193
"f:\dev\libview-gl\LibView\src\LibView\model\AttributeMap.h", "C++", 51, 151, 51, 253
"f:\dev\libview-gl\LibView\src\LibView\model\FileIO.h", "C++", 14, 19, 7, 40
"f:\dev\libview-gl\LibView\src\LibView\model\FileIO_Linux.cpp", "C++", 42, 0, 18, 60
"f:\dev\libview-gl\LibView\src\LibView\model\FileIO_Windows.cpp", "C++", 43, 0, 20, 63
"f:\dev\libview-gl\LibView\src\LibView\model\HeldPair.cpp", "C++", 10, 12, 6, 28
"f:\dev\libview-gl\LibView\src\LibView\model\HeldPair.h", "C++", 16, 6, 8, 30
"f:\dev\libview-gl\LibView\src\LibView\model\HolderObserver.cpp", "C++", 32, 13, 10, 55
"f:\dev\libview-gl\LibView\src\LibView\model\HolderObserver.h", "C++", 25, 24, 7, 56
"f:\dev\libview-gl\LibView\src\LibView\model\LibFileHolder.cpp", "C++", 98, 14, 42, 154
"f:\dev\libview-gl\LibView\src\LibView\model\LibFileHolder.h", "C++", 41, 66, 25, 132
"f:\dev\libview-gl\LibView\src\LibView\model\LibFileLoader.cpp", "C++", 18, 14, 6, 38
"f:\dev\libview-gl\LibView\src\LibView\model\LibFileLoader.h", "C++", 18, 9, 12, 39
"f:\dev\libview-gl\LibView\src\LibView\model\LibFileUtils.cpp", "C++", 19, 30, 6, 55
"f:\dev\libview-gl\LibView\src\LibView\model\LibFileUtils.h", "C++", 17, 22, 8, 47
"f:\dev\libview-gl\LibView\src\LibView\model\LibViewMap.h", "C++", 28, 29, 14, 71
"f:\dev\libview-gl\LibView\src\LibView\model\LibViewPair.h", "C++", 28, 44, 25, 97
"f:\dev\libview-gl\LibView\src\LibView\model\ModelFacade.cpp", "C++", 140, 15, 35, 190
"f:\dev\libview-gl\LibView\src\LibView\model\ModelFacade.h", "C++", 51, 90, 33, 174
"f:\dev\libview-gl\LibView\src\LibView\model\ModelFacadeKnower.cpp", "C++", 13, 0, 5, 18
"f:\dev\libview-gl\LibView\src\LibView\model\ModelFacadeKnower.h", "C++", 16, 0, 8, 24
"f:\dev\libview-gl\LibView\src\LibView\model\ModelFacade_decl.h", "C++", 8, 0, 1, 9
"f:\dev\libview-gl\LibView\src\LibView\model\ModelState.cpp", "C++", 52, 20, 25, 97
"f:\dev\libview-gl\LibView\src\LibView\model\ModelState.h", "C++", 36, 60, 29, 125
"f:\dev\libview-gl\LibView\src\LibView\model\PresetHolder.cpp", "C++", 28, 1, 2, 31
"f:\dev\libview-gl\LibView\src\LibView\model\PresetHolder.h", "C++", 18, 0, 9, 27
"f:\dev\libview-gl\LibView\src\LibView\model\SortingParameter.h", "C++", 3, 0, 2, 5
"f:\dev\libview-gl\LibView\src\LibView\model\builder\BasicTableBuilder.cpp", "C++", 77, 19, 17, 113
"f:\dev\libview-gl\LibView\src\LibView\model\builder\BasicTableBuilder.h", "C++", 22, 10, 7, 39
"f:\dev\libview-gl\LibView\src\LibView\model\builder\BuildDirector.cpp", "C++", 93, 30, 12, 135
"f:\dev\libview-gl\LibView\src\LibView\model\builder\BuildDirector.h", "C++", 50, 18, 19, 87
"f:\dev\libview-gl\LibView\src\LibView\model\builder\CellBuilder.cpp", "C++", 41, 17, 16, 74
"f:\dev\libview-gl\LibView\src\LibView\model\builder\CellBuilder.h", "C++", 22, 10, 6, 38
"f:\dev\libview-gl\LibView\src\LibView\model\builder\FlipFlopBuilder.cpp", "C++", 56, 17, 15, 88
"f:\dev\libview-gl\LibView\src\LibView\model\builder\FlipFlopBuilder.h", "C++", 22, 10, 6, 38
"f:\dev\libview-gl\LibView\src\LibView\model\builder\GroupBuilder.cpp", "C++", 228, 23, 76, 327
"f:\dev\libview-gl\LibView\src\LibView\model\builder\GroupBuilder.h", "C++", 44, 12, 26, 82
"f:\dev\libview-gl\LibView\src\LibView\model\builder\InputVoltageBuilder.cpp", "C++", 56, 17, 17, 90
"f:\dev\libview-gl\LibView\src\LibView\model\builder\InputVoltageBuilder.h", "C++", 22, 10, 6, 38
"f:\dev\libview-gl\LibView\src\LibView\model\builder\InternalPowerBuilder.cpp", "C++", 41, 17, 19, 77
"f:\dev\libview-gl\LibView\src\LibView\model\builder\InternalPowerBuilder.h", "C++", 22, 10, 6, 38
"f:\dev\libview-gl\LibView\src\LibView\model\builder\LatchBuilder.cpp", "C++", 46, 2, 12, 60
"f:\dev\libview-gl\LibView\src\LibView\model\builder\LatchBuilder.h", "C++", 22, 5, 8, 35
"f:\dev\libview-gl\LibView\src\LibView\model\builder\LeakagePowerBuilder.cpp", "C++", 46, 17, 16, 79
"f:\dev\libview-gl\LibView\src\LibView\model\builder\LeakagePowerBuilder.h", "C++", 22, 10, 6, 38
"f:\dev\libview-gl\LibView\src\LibView\model\builder\LibraryBuilder.cpp", "C++", 174, 17, 22, 213
"f:\dev\libview-gl\LibView\src\LibView\model\builder\LibraryBuilder.h", "C++", 22, 10, 7, 39
"f:\dev\libview-gl\LibView\src\LibView\model\builder\LuTableTemplateBuilder.cpp", "C++", 66, 17, 18, 101
"f:\dev\libview-gl\LibView\src\LibView\model\builder\LuTableTemplateBuilder.h", "C++", 22, 10, 7, 39
"f:\dev\libview-gl\LibView\src\LibView\model\builder\NormalizedDriverWaveformBuilder.cpp", "C++", 66, 17, 19, 102
"f:\dev\libview-gl\LibView\src\LibView\model\builder\NormalizedDriverWaveformBuilder.h", "C++", 22, 10, 6, 38
"f:\dev\libview-gl\LibView\src\LibView\model\builder\OcvSigmaCellBuilder.cpp", "C++", 83, 17, 17, 117
"f:\dev\libview-gl\LibView\src\LibView\model\builder\OcvSigmaCellBuilder.h", "C++", 22, 10, 6, 38
"f:\dev\libview-gl\LibView\src\LibView\model\builder\OcvSigmaTransitionBuilder.cpp", "C++", 110, 17, 18, 145
"f:\dev\libview-gl\LibView\src\LibView\model\builder\OcvSigmaTransitionBuilder.h", "C++", 22, 10, 6, 38
"f:\dev\libview-gl\LibView\src\LibView\model\builder\OperatingConditionsBuilder.cpp", "C++", 51, 17, 16, 84
"f:\dev\libview-gl\LibView\src\LibView\model\builder\OperatingConditionsBuilder.h", "C++", 22, 10, 6, 38
"f:\dev\libview-gl\LibView\src\LibView\model\builder\OutputVoltageBuilder.cpp", "C++", 56, 17, 16, 89
"f:\dev\libview-gl\LibView\src\LibView\model\builder\OutputVoltageBuilder.h", "C++", 22, 10, 7, 39
"f:\dev\libview-gl\LibView\src\LibView\model\builder\PinBuilder.cpp", "C++", 106, 17, 16, 139
"f:\dev\libview-gl\LibView\src\LibView\model\builder\PinBuilder.h", "C++", 22, 10, 6, 38
"f:\dev\libview-gl\LibView\src\LibView\model\builder\PowerLutTemplateBuilder.cpp", "C++", 67, 17, 18, 102
"f:\dev\libview-gl\LibView\src\LibView\model\builder\PowerLutTemplateBuilder.h", "C++", 22, 10, 6, 38
"f:\dev\libview-gl\LibView\src\LibView\model\builder\TimingBuilder.cpp", "C++", 52, 17, 17, 86
"f:\dev\libview-gl\LibView\src\LibView\model\builder\TimingBuilder.h", "C++", 22, 10, 6, 38
"f:\dev\libview-gl\LibView\src\LibView\model\builder\TransitionTableBuilder.cpp", "C++", 106, 16, 18, 140
"f:\dev\libview-gl\LibView\src\LibView\model\builder\TransitionTableBuilder.h", "C++", 22, 10, 7, 39
"f:\dev\libview-gl\LibView\src\LibView\model\data_structure\BasicTable.cpp", "C++", 28, 16, 6, 50
"f:\dev\libview-gl\LibView\src\LibView\model\data_structure\BasicTable.h", "C++", 21, 8, 5, 34
"f:\dev\libview-gl\LibView\src\LibView\model\data_structure\CapacitiveLoadUnitAttribute.cpp", "C++", 40, 23, 10, 73
"f:\dev\libview-gl\LibView\src\LibView\model\data_structure\CapacitiveLoadUnitAttribute.h", "C++", 26, 11, 12, 49
"f:\dev\libview-gl\LibView\src\LibView\model\data_structure\Cell.cpp", "C++", 29, 16, 6, 51
"f:\dev\libview-gl\LibView\src\LibView\model\data_structure\Cell.h", "C++", 21, 8, 8, 37
"f:\dev\libview-gl\LibView\src\LibView\model\data_structure\DynamicDimensionArray.cpp", "C++", 199, 6, 60, 265
"f:\dev\libview-gl\LibView\src\LibView\model\data_structure\DynamicDimensionArray.h", "C++", 42, 0, 18, 60
"f:\dev\libview-gl\LibView\src\LibView\model\data_structure\Ff.cpp", "C++", 59, 29, 10, 98
"f:\dev\libview-gl\LibView\src\LibView\model\data_structure\Ff.h", "C++", 29, 17, 18, 64
"f:\dev\libview-gl\LibView\src\LibView\model\data_structure\GroupIterator.cpp", "C++", 18, 10, 7, 35
"f:\dev\libview-gl\LibView\src\LibView\model\data_structure\GroupIterator.h", "C++", 16, 5, 4, 25
"f:\dev\libview-gl\LibView\src\LibView\model\data_structure\IndexTemplate.cpp", "C++", 65, 28, 14, 107
"f:\dev\libview-gl\LibView\src\LibView\model\data_structure\IndexTemplate.h", "C++", 31, 14, 16, 61
"f:\dev\libview-gl\LibView\src\LibView\model\data_structure\InputVoltage.cpp", "C++", 82, 34, 17, 133
"f:\dev\libview-gl\LibView\src\LibView\model\data_structure\InputVoltage.h", "C++", 38, 17, 25, 80
"f:\dev\libview-gl\LibView\src\LibView\model\data_structure\InternalPower.cpp", "C++", 34, 15, 10, 59
"f:\dev\libview-gl\LibView\src\LibView\model\data_structure\InternalPower.h", "C++", 20, 5, 7, 32
"f:\dev\libview-gl\LibView\src\LibView\model\data_structure\Latch.cpp", "C++", 38, 10, 11, 59
"f:\dev\libview-gl\LibView\src\LibView\model\data_structure\Latch.h", "C++", 25, 0, 10, 35
"f:\dev\libview-gl\LibView\src\LibView\model\data_structure\LeakagePower.cpp", "C++", 42, 30, 16, 88
"f:\dev\libview-gl\LibView\src\LibView\model\data_structure\LeakagePower.h", "C++", 24, 11, 10, 45
"f:\dev\libview-gl\LibView\src\LibView\model\data_structure\LibertyFileData.cpp", "C++", 54, 29, 15, 98
"f:\dev\libview-gl\LibView\src\LibView\model\data_structure\LibertyFileData.h", "C++", 43, 6, 22, 71
"f:\dev\libview-gl\LibView\src\LibView\model\data_structure\LibertyFileGroup.cpp", "C++", 204, 58, 35, 297
"f:\dev\libview-gl\LibView\src\LibView\model\data_structure\LibertyFileGroup.h", "C++", 61, 40, 48, 149
"f:\dev\libview-gl\LibView\src\LibView\model\data_structure\LibertyFileGroup_decl.h", "C++", 11, 0, 1, 12
"f:\dev\libview-gl\LibView\src\LibView\model\data_structure\Library.cpp", "C++", 351, 156, 58, 565
"f:\dev\libview-gl\LibView\src\LibView\model\data_structure\Library.h", "C++", 117, 84, 103, 304
"f:\dev\libview-gl\LibView\src\LibView\model\data_structure\Library_decl.h", "C++", 11, 0, 1, 12
"f:\dev\libview-gl\LibView\src\LibView\model\data_structure\LuTableTemplate.cpp", "C++", 48, 29, 11, 88
"f:\dev\libview-gl\LibView\src\LibView\model\data_structure\LuTableTemplate.h", "C++", 26, 14, 13, 53
"f:\dev\libview-gl\LibView\src\LibView\model\data_structure\NormalizedDriverWaveform.cpp", "C++", 61, 35, 13, 109
"f:\dev\libview-gl\LibView\src\LibView\model\data_structure\NormalizedDriverWaveform.h", "C++", 30, 17, 15, 62
"f:\dev\libview-gl\LibView\src\LibView\model\data_structure\OcvSigmaCell.cpp", "C++", 24, 17, 7, 48
"f:\dev\libview-gl\LibView\src\LibView\model\data_structure\OcvSigmaCell.h", "C++", 20, 8, 6, 34
"f:\dev\libview-gl\LibView\src\LibView\model\data_structure\OcvSigmaTransition.cpp", "C++", 26, 17, 7, 50
"f:\dev\libview-gl\LibView\src\LibView\model\data_structure\OcvSigmaTransition.h", "C++", 21, 8, 6, 35
"f:\dev\libview-gl\LibView\src\LibView\model\data_structure\OperatingConditions.cpp", "C++", 52, 28, 10, 90
"f:\dev\libview-gl\LibView\src\LibView\model\data_structure\OperatingConditions.h", "C++", 29, 14, 15, 58
"f:\dev\libview-gl\LibView\src\LibView\model\data_structure\OutputVoltage.cpp", "C++", 81, 34, 15, 130
"f:\dev\libview-gl\LibView\src\LibView\model\data_structure\OutputVoltage.h", "C++", 38, 17, 23, 78
"f:\dev\libview-gl\LibView\src\LibView\model\data_structure\Pin.cpp", "C++", 175, 65, 25, 265
"f:\dev\libview-gl\LibView\src\LibView\model\data_structure\Pin.h", "C++", 62, 32, 49, 143
"f:\dev\libview-gl\LibView\src\LibView\model\data_structure\PowerLutTemplate.cpp", "C++", 48, 29, 11, 88
"f:\dev\libview-gl\LibView\src\LibView\model\data_structure\PowerLutTemplate.h", "C++", 26, 14, 12, 52
"f:\dev\libview-gl\LibView\src\LibView\model\data_structure\Timing.cpp", "C++", 51, 27, 10, 88
"f:\dev\libview-gl\LibView\src\LibView\model\data_structure\Timing.h", "C++", 26, 14, 12, 52
"f:\dev\libview-gl\LibView\src\LibView\model\data_structure\TransitionTable.cpp", "C++", 28, 16, 7, 51
"f:\dev\libview-gl\LibView\src\LibView\model\data_structure\TransitionTable.h", "C++", 21, 8, 7, 36
"f:\dev\libview-gl\LibView\src\LibView\model\data_structure\VoltageExpression.cpp", "C++", 62, 20, 9, 91
"f:\dev\libview-gl\LibView\src\LibView\model\data_structure\VoltageExpression.h", "C++", 26, 8, 13, 47
"f:\dev\libview-gl\LibView\src\LibView\model\presets\AllPowerTables.h", "C++", 18, 0, 3, 21
"f:\dev\libview-gl\LibView\src\LibView\model\presets\Leakage.h", "C++", 17, 0, 3, 20
"f:\dev\libview-gl\LibView\src\LibView\model\presets\TestPreset.h", "C++", 17, 0, 3, 20
"f:\dev\libview-gl\LibView\src\LibView\model\presets\TimingDelay.h", "C++", 18, 0, 3, 21
"f:\dev\libview-gl\LibView\src\LibView\model\presets\TimingTransition.h", "C++", 18, 0, 3, 21
"f:\dev\libview-gl\LibView\src\LibView\model\translator\Translator.cpp", "C++", 14, 10, 3, 27
"f:\dev\libview-gl\LibView\src\LibView\model\translator\Translator.h", "C++", 17, 7, 8, 32
"f:\dev\libview-gl\LibView\src\LibView\model\translator\ast\Attribute.cpp", "C++", 25, 5, 4, 34
"f:\dev\libview-gl\LibView\src\LibView\model\translator\ast\Attribute.h", "C++", 24, 19, 11, 54
"f:\dev\libview-gl\LibView\src\LibView\model\translator\ast\Group.cpp", "C++", 82, 55, 20, 157
"f:\dev\libview-gl\LibView\src\LibView\model\translator\ast\Group.h", "C++", 40, 80, 27, 147
"f:\dev\libview-gl\LibView\src\LibView\model\translator\parser\ConcreteStates\CARead.cpp", "C++", 20, 5, 3, 28
"f:\dev\libview-gl\LibView\src\LibView\model\translator\parser\ConcreteStates\CARead.h", "C++", 20, 5, 5, 30
"f:\dev\libview-gl\LibView\src\LibView\model\translator\parser\ConcreteStates\EscapedExit.cpp", "C++", 25, 8, 2, 35
"f:\dev\libview-gl\LibView\src\LibView\model\translator\parser\ConcreteStates\EscapedExit.h", "C++", 22, 5, 6, 33
"f:\dev\libview-gl\LibView\src\LibView\model\translator\parser\ConcreteStates\Final.cpp", "C++", 20, 5, 2, 27
"f:\dev\libview-gl\LibView\src\LibView\model\translator\parser\ConcreteStates\Final.h", "C++", 21, 5, 6, 32
"f:\dev\libview-gl\LibView\src\LibView\model\translator\parser\ConcreteStates\GroupReading.cpp", "C++", 20, 8, 2, 30
"f:\dev\libview-gl\LibView\src\LibView\model\translator\parser\ConcreteStates\GroupReading.h", "C++", 20, 5, 5, 30
"f:\dev\libview-gl\LibView\src\LibView\model\translator\parser\ConcreteStates\Multiline.cpp", "C++", 24, 8, 2, 34
"f:\dev\libview-gl\LibView\src\LibView\model\translator\parser\ConcreteStates\Multiline.h", "C++", 21, 5, 3, 29
"f:\dev\libview-gl\LibView\src\LibView\model\translator\parser\ConcreteStates\ParameterRead.cpp", "C++", 30, 8, 2, 40
"f:\dev\libview-gl\LibView\src\LibView\model\translator\parser\ConcreteStates\ParameterRead.h", "C++", 23, 5, 5, 33
"f:\dev\libview-gl\LibView\src\LibView\model\translator\parser\ConcreteStates\ParameterReading.cpp", "C++", 67, 5, 2, 74
"f:\dev\libview-gl\LibView\src\LibView\model\translator\parser\ConcreteStates\ParameterReading.h", "C++", 34, 6, 10, 50
"f:\dev\libview-gl\LibView\src\LibView\model\translator\parser\ConcreteStates\SARead.cpp", "C++", 35, 8, 3, 46
"f:\dev\libview-gl\LibView\src\LibView\model\translator\parser\ConcreteStates\SARead.h", "C++", 30, 6, 9, 45
"f:\dev\libview-gl\LibView\src\LibView\model\translator\parser\ConcreteStates\SAReadingValue.cpp", "C++", 30, 8, 2, 40
"f:\dev\libview-gl\LibView\src\LibView\model\translator\parser\ConcreteStates\SAReadingValue.h", "C++", 29, 6, 7, 42
"f:\dev\libview-gl\LibView\src\LibView\model\translator\parser\ConcreteStates\StartTypeReading.cpp", "C++", 29, 5, 6, 40
"f:\dev\libview-gl\LibView\src\LibView\model\translator\parser\ConcreteStates\StartTypeReading.h", "C++", 27, 5, 10, 42
"f:\dev\libview-gl\LibView\src\LibView\model\translator\parser\ConcreteStates\StringValue.cpp", "C++", 33, 5, 3, 41
"f:\dev\libview-gl\LibView\src\LibView\model\translator\parser\ConcreteStates\StringValue.h", "C++", 33, 11, 8, 52
"f:\dev\libview-gl\LibView\src\LibView\model\translator\parser\ConcreteStates\TypeRead.cpp", "C++", 28, 8, 2, 38
"f:\dev\libview-gl\LibView\src\LibView\model\translator\parser\ConcreteStates\TypeRead.h", "C++", 23, 5, 4, 32
"f:\dev\libview-gl\LibView\src\LibView\model\translator\parser\Parser.cpp", "C++", 14, 8, 5, 27
"f:\dev\libview-gl\LibView\src\LibView\model\translator\parser\Parser.h", "C++", 23, 9, 7, 39
"f:\dev\libview-gl\LibView\src\LibView\model\translator\parser\StackParser.cpp", "C++", 79, 27, 25, 131
"f:\dev\libview-gl\LibView\src\LibView\model\translator\parser\StackParser.h", "C++", 64, 43, 33, 140
"f:\dev\libview-gl\LibView\src\LibView\model\translator\parser\StackParserState.cpp", "C++", 140, 15, 38, 193
"f:\dev\libview-gl\LibView\src\LibView\model\translator\parser\StackParserState.h", "C++", 51, 7, 42, 100
"f:\dev\libview-gl\LibView\src\LibView\model\translator\parser\StackParserState_decl.h", "C++", 14, 0, 0, 14
"f:\dev\libview-gl\LibView\src\LibView\model\translator\parser\StackParser_decl.h", "C++", 14, 0, 1, 15
"f:\dev\libview-gl\LibView\src\LibView\model\translator\reader\PreCalculatingCharacterReader.cpp", "C++", 42, 13, 13, 68
"f:\dev\libview-gl\LibView\src\LibView\model\translator\reader\PreCalculatingCharacterReader.h", "C++", 33, 24, 18, 75
"f:\dev\libview-gl\LibView\src\LibView\model\translator\reader\readFile.h", "C++", 19, 19, 7, 45
"f:\dev\libview-gl\LibView\src\LibView\model\translator\token\Token.cpp", "C++", 66, 15, 12, 93
"f:\dev\libview-gl\LibView\src\LibView\model\translator\token\Token.h", "C++", 34, 6, 22, 62
"f:\dev\libview-gl\LibView\src\LibView\model\translator\token\TokenKeys.h", "C++", 60, 5, 5, 70
"f:\dev\libview-gl\LibView\src\LibView\model\translator\tokenizer\OnDemandTokenizer.cpp", "C++", 155, 39, 57, 251
"f:\dev\libview-gl\LibView\src\LibView\model\translator\tokenizer\OnDemandTokenizer.h", "C++", 59, 48, 41, 148
"f:\dev\libview-gl\LibView\src\LibView\model\translator\tokenizer\States.cpp", "C++", 13, 0, 3, 16
"f:\dev\libview-gl\LibView\src\LibView\model\translator\tokenizer\States.h", "C++", 52, 8, 25, 85
"f:\dev\libview-gl\LibView\src\LibView\model\translator\tokenizer\Tokenizer.cpp", "C++", 20, 23, 9, 52
"f:\dev\libview-gl\LibView\src\LibView\model\translator\tokenizer\Tokenizer.h", "C++", 24, 13, 13, 50
"f:\dev\libview-gl\LibView\src\LibView\model\translator\tokenizer\Transition.cpp", "C++", 232, 31, 47, 310
"f:\dev\libview-gl\LibView\src\LibView\model\translator\tokenizer\Transition.h", "C++", 24, 12, 11, 47
"f:\dev\libview-gl\LibView\src\LibView\model\translator\tokenizer\Transitions.h", "C++", 42, 15, 37, 94
"f:\dev\libview-gl\LibView\src\LibView\model\translator\tokenizer\tokenize.h", "C++", 19, 14, 5, 38
"f:\dev\libview-gl\LibView\src\LibView\presenter\AVisibilityMap.cpp", "C++", 63, 12, 17, 92
"f:\dev\libview-gl\LibView\src\LibView\presenter\AVisibilityMap.h", "C++", 32, 55, 24, 111
"f:\dev\libview-gl\LibView\src\LibView\presenter\AttributeVisibilityMap.cpp", "C++", 14, 10, 5, 29
"f:\dev\libview-gl\LibView\src\LibView\presenter\AttributeVisibilityMap.h", "C++", 12, 5, 9, 26
"f:\dev\libview-gl\LibView\src\LibView\presenter\HistogramData.cpp", "C++", 11, 0, 8, 19
"f:\dev\libview-gl\LibView\src\LibView\presenter\HistogramData.h", "C++", 14, 5, 7, 26
"f:\dev\libview-gl\LibView\src\LibView\presenter\IMergeTemplate.h", "C++", 13, 9, 8, 30
"f:\dev\libview-gl\LibView\src\LibView\presenter\LibFileVisibilityMap.cpp", "C++", 7, 10, 3, 20
"f:\dev\libview-gl\LibView\src\LibView\presenter\LibFileVisibilityMap.h", "C++", 10, 5, 8, 23
"f:\dev\libview-gl\LibView\src\LibView\presenter\MergeAverage.cpp", "C++", 11, 10, 4, 25
"f:\dev\libview-gl\LibView\src\LibView\presenter\MergeAverage.h", "C++", 13, 5, 8, 26
"f:\dev\libview-gl\LibView\src\LibView\presenter\PinnedLibFile.cpp", "C++", 40, 10, 14, 64
"f:\dev\libview-gl\LibView\src\LibView\presenter\PinnedLibFile.h", "C++", 21, 34, 10, 65
"f:\dev\libview-gl\LibView\src\LibView\presenter\PresenterFacade.cpp", "C++", 187, 40, 87, 314
"f:\dev\libview-gl\LibView\src\LibView\presenter\PresenterFacade.h", "C++", 54, 111, 37, 202
"f:\dev\libview-gl\LibView\src\LibView\presenter\PresenterFacade_decl.h", "C++", 8, 0, 1, 9
"f:\dev\libview-gl\LibView\src\LibView\presenter\ProgramState.cpp", "C++", 73, 0, 14, 87
"f:\dev\libview-gl\LibView\src\LibView\presenter\ProgramState.h", "C++", 43, 68, 25, 136
"f:\dev\libview-gl\LibView\src\LibView\presenter\mock_IView.h", "C++", 39, 14, 24, 77
"f:\dev\libview-gl\LibView\src\LibView\presenter\presets\APreset.cpp", "C++", 17, 24, 12, 53
"f:\dev\libview-gl\LibView\src\LibView\presenter\presets\APreset.h", "C++", 19, 14, 6, 39
"f:\dev\libview-gl\LibView\src\LibView\presenter\presets\APresetData.cpp", "C++", 13, 16, 7, 36
"f:\dev\libview-gl\LibView\src\LibView\presenter\presets\APresetData.h", "C++", 23, 8, 7, 38
"f:\dev\libview-gl\LibView\src\LibView\presenter\presets\PresetDataStorage.cpp", "C++", 66, 1, 34, 101
"f:\dev\libview-gl\LibView\src\LibView\presenter\presets\PresetDataStorage.h", "C++", 37, 48, 24, 109
"f:\dev\libview-gl\LibView\src\LibView\presenter\presets\PresetLeakage.cpp", "C++", 7, 11, 3, 21
"f:\dev\libview-gl\LibView\src\LibView\presenter\presets\PresetLeakage.h", "C++", 10, 5, 5, 20
"f:\dev\libview-gl\LibView\src\LibView\presenter\presets\PresetLeakageData.cpp", "C++", 10, 13, 5, 28
"f:\dev\libview-gl\LibView\src\LibView\presenter\presets\PresetLeakageData.h", "C++", 14, 8, 7, 29
"f:\dev\libview-gl\LibView\src\LibView\presenter\presets\PresetPowerTables.cpp", "C++", 7, 8, 3, 18
"f:\dev\libview-gl\LibView\src\LibView\presenter\presets\PresetPowerTables.h", "C++", 10, 5, 6, 21
"f:\dev\libview-gl\LibView\src\LibView\presenter\presets\PresetPowerTablesData.cpp", "C++", 10, 11, 5, 26
"f:\dev\libview-gl\LibView\src\LibView\presenter\presets\PresetPowerTablesData.h", "C++", 14, 8, 7, 29
"f:\dev\libview-gl\LibView\src\LibView\presenter\presets\PresetTimingDelay.cpp", "C++", 7, 10, 3, 20
"f:\dev\libview-gl\LibView\src\LibView\presenter\presets\PresetTimingDelay.h", "C++", 11, 5, 6, 22
"f:\dev\libview-gl\LibView\src\LibView\presenter\presets\PresetTimingDelayData.cpp", "C++", 10, 13, 5, 28
"f:\dev\libview-gl\LibView\src\LibView\presenter\presets\PresetTimingDelayData.h", "C++", 14, 8, 7, 29
"f:\dev\libview-gl\LibView\src\LibView\presenter\presets\PresetTimingTransition.cpp", "C++", 7, 8, 4, 19
"f:\dev\libview-gl\LibView\src\LibView\presenter\presets\PresetTimingTransition.h", "C++", 10, 5, 6, 21
"f:\dev\libview-gl\LibView\src\LibView\presenter\presets\PresetTimingTransitionData.cpp", "C++", 10, 11, 5, 26
"f:\dev\libview-gl\LibView\src\LibView\presenter\presets\PresetTimingTransitionData.h", "C++", 14, 8, 7, 29
"f:\dev\libview-gl\LibView\src\LibView\qt\Qt_AttributeDisplayRow.cpp", "C++", 6, 0, 3, 9
"f:\dev\libview-gl\LibView\src\LibView\qt\Qt_AttributeDisplayRow.h", "C++", 12, 0, 5, 17
"f:\dev\libview-gl\LibView\src\LibView\qt\Qt_AttributeSelectionBox.cpp", "C++", 6, 0, 3, 9
"f:\dev\libview-gl\LibView\src\LibView\qt\Qt_AttributeSelectionBox.h", "C++", 12, 0, 5, 17
"f:\dev\libview-gl\LibView\src\LibView\qt\Qt_AttributeVisibilityToggle.cpp", "C++", 6, 0, 3, 9
"f:\dev\libview-gl\LibView\src\LibView\qt\Qt_AttributeVisibilityToggle.h", "C++", 12, 0, 5, 17
"f:\dev\libview-gl\LibView\src\LibView\qt\Qt_CalculateSigmaButton.cpp", "C++", 6, 0, 3, 9
"f:\dev\libview-gl\LibView\src\LibView\qt\Qt_CalculateSigmaButton.h", "C++", 12, 0, 5, 17
"f:\dev\libview-gl\LibView\src\LibView\qt\Qt_ContentDisplay.cpp", "C++", 6, 0, 3, 9
"f:\dev\libview-gl\LibView\src\LibView\qt\Qt_ContentDisplay.h", "C++", 12, 0, 5, 17
"f:\dev\libview-gl\LibView\src\LibView\qt\Qt_CreateNewLvfButton.cpp", "C++", 6, 0, 3, 9
"f:\dev\libview-gl\LibView\src\LibView\qt\Qt_CreateNewLvfButton.h", "C++", 12, 0, 5, 17
"f:\dev\libview-gl\LibView\src\LibView\qt\Qt_DeltaPercentToggle.cpp", "C++", 6, 0, 3, 9
"f:\dev\libview-gl\LibView\src\LibView\qt\Qt_DeltaPercentToggle.h", "C++", 12, 0, 5, 17
"f:\dev\libview-gl\LibView\src\LibView\qt\Qt_ExportCsvButton.cpp", "C++", 6, 0, 3, 9
"f:\dev\libview-gl\LibView\src\LibView\qt\Qt_ExportCsvButton.h", "C++", 12, 0, 5, 17
"f:\dev\libview-gl\LibView\src\LibView\qt\Qt_GroupDisplay.cpp", "C++", 6, 0, 3, 9
"f:\dev\libview-gl\LibView\src\LibView\qt\Qt_GroupDisplay.h", "C++", 12, 0, 5, 17
"f:\dev\libview-gl\LibView\src\LibView\qt\Qt_HistogramDataDisplay.cpp", "C++", 6, 0, 3, 9
"f:\dev\libview-gl\LibView\src\LibView\qt\Qt_HistogramDataDisplay.h", "C++", 12, 0, 5, 17
"f:\dev\libview-gl\LibView\src\LibView\qt\Qt_LibFileDataColumn.cpp", "C++", 6, 0, 3, 9
"f:\dev\libview-gl\LibView\src\LibView\qt\Qt_LibFileDataColumn.h", "C++", 12, 0, 5, 17
"f:\dev\libview-gl\LibView\src\LibView\qt\Qt_LibFileDataDisplay.cpp", "C++", 6, 0, 3, 9
"f:\dev\libview-gl\LibView\src\LibView\qt\Qt_LibFileDataDisplay.h", "C++", 12, 0, 5, 17
"f:\dev\libview-gl\LibView\src\LibView\qt\Qt_LibFileHeader.cpp", "C++", 6, 0, 3, 9
"f:\dev\libview-gl\LibView\src\LibView\qt\Qt_LibFileHeader.h", "C++", 12, 0, 5, 17
"f:\dev\libview-gl\LibView\src\LibView\qt\Qt_LibFileSelectionBox.cpp", "C++", 6, 0, 3, 9
"f:\dev\libview-gl\LibView\src\LibView\qt\Qt_LibFileSelectionBox.h", "C++", 12, 0, 5, 17
"f:\dev\libview-gl\LibView\src\LibView\qt\Qt_LibFileSelectionComboBox.cpp", "C++", 6, 0, 3, 9
"f:\dev\libview-gl\LibView\src\LibView\qt\Qt_LibFileSelectionComboBox.h", "C++", 12, 0, 5, 17
"f:\dev\libview-gl\LibView\src\LibView\qt\Qt_LibFileVisibilityToggle.cpp", "C++", 6, 0, 3, 9
"f:\dev\libview-gl\LibView\src\LibView\qt\Qt_LibFileVisibilityToggle.h", "C++", 12, 0, 5, 17
"f:\dev\libview-gl\LibView\src\LibView\qt\Qt_LoadLibFileButton.cpp", "C++", 6, 0, 3, 9
"f:\dev\libview-gl\LibView\src\LibView\qt\Qt_LoadLibFileButton.h", "C++", 12, 0, 5, 17
"f:\dev\libview-gl\LibView\src\LibView\qt\Qt_MainTabBar.cpp", "C++", 6, 0, 3, 9
"f:\dev\libview-gl\LibView\src\LibView\qt\Qt_MainTabBar.h", "C++", 12, 0, 5, 17
"f:\dev\libview-gl\LibView\src\LibView\qt\Qt_MergeAndCreateNewFileButton.cpp", "C++", 6, 0, 3, 9
"f:\dev\libview-gl\LibView\src\LibView\qt\Qt_MergeAndCreateNewFileButton.h", "C++", 12, 0, 5, 17
"f:\dev\libview-gl\LibView\src\LibView\qt\Qt_PinButton.cpp", "C++", 6, 0, 3, 9
"f:\dev\libview-gl\LibView\src\LibView\qt\Qt_PinButton.h", "C++", 12, 0, 5, 17
"f:\dev\libview-gl\LibView\src\LibView\qt\Qt_PresetDataBox.cpp", "C++", 6, 0, 3, 9
"f:\dev\libview-gl\LibView\src\LibView\qt\Qt_PresetDataBox.h", "C++", 12, 0, 5, 17
"f:\dev\libview-gl\LibView\src\LibView\qt\Qt_PresetDataRow.cpp", "C++", 6, 0, 3, 9
"f:\dev\libview-gl\LibView\src\LibView\qt\Qt_PresetDataRow.h", "C++", 12, 0, 5, 17
"f:\dev\libview-gl\LibView\src\LibView\qt\Qt_PresetDisplayOverview.cpp", "C++", 6, 0, 3, 9
"f:\dev\libview-gl\LibView\src\LibView\qt\Qt_PresetDisplayOverview.h", "C++", 12, 0, 5, 17
"f:\dev\libview-gl\LibView\src\LibView\qt\Qt_PresetSelectionBox.cpp", "C++", 6, 0, 3, 9
"f:\dev\libview-gl\LibView\src\LibView\qt\Qt_PresetSelectionBox.h", "C++", 12, 0, 5, 17
"f:\dev\libview-gl\LibView\src\LibView\qt\Qt_PresetTitle.cpp", "C++", 6, 0, 3, 9
"f:\dev\libview-gl\LibView\src\LibView\qt\Qt_PresetTitle.h", "C++", 12, 0, 5, 17
"f:\dev\libview-gl\LibView\src\LibView\qt\Qt_PresetVisibilityToggle.cpp", "C++", 6, 0, 3, 9
"f:\dev\libview-gl\LibView\src\LibView\qt\Qt_PresetVisibilityToggle.h", "C++", 12, 0, 5, 17
"f:\dev\libview-gl\LibView\src\LibView\qt\Qt_RemoveButton.cpp", "C++", 6, 0, 3, 9
"f:\dev\libview-gl\LibView\src\LibView\qt\Qt_RemoveButton.h", "C++", 12, 0, 5, 17
"f:\dev\libview-gl\LibView\src\LibView\qt\Qt_SearchBar.cpp", "C++", 6, 0, 3, 9
"f:\dev\libview-gl\LibView\src\LibView\qt\Qt_SearchBar.h", "C++", 12, 0, 5, 17
"f:\dev\libview-gl\LibView\src\LibView\qt\Qt_SelectGraphTypeComboBox.cpp", "C++", 6, 0, 3, 9
"f:\dev\libview-gl\LibView\src\LibView\qt\Qt_SelectGraphTypeComboBox.h", "C++", 12, 0, 5, 17
"f:\dev\libview-gl\LibView\src\LibView\qt\Qt_SideMenu.cpp", "C++", 6, 0, 3, 9
"f:\dev\libview-gl\LibView\src\LibView\qt\Qt_SideMenu.h", "C++", 12, 0, 5, 17
"f:\dev\libview-gl\LibView\src\LibView\qt\uic\ui_Qt_AttributeDisplayRow.h", "C++", 42, 7, 17, 66
"f:\dev\libview-gl\LibView\src\LibView\qt\uic\ui_Qt_AttributeSelectionBox.h", "C++", 41, 7, 17, 65
"f:\dev\libview-gl\LibView\src\LibView\qt\uic\ui_Qt_AttributeVisibilityToggle.h", "C++", 37, 7, 15, 59
"f:\dev\libview-gl\LibView\src\LibView\qt\uic\ui_Qt_CalculateSigmaButton.h", "C++", 37, 7, 15, 59
"f:\dev\libview-gl\LibView\src\LibView\qt\uic\ui_Qt_ContentDisplay.h", "C++", 36, 7, 15, 58
"f:\dev\libview-gl\LibView\src\LibView\qt\uic\ui_Qt_CreateNewLvfButton.h", "C++", 37, 7, 15, 59
"f:\dev\libview-gl\LibView\src\LibView\qt\uic\ui_Qt_DeltaPercentToggle.h", "C++", 52, 7, 19, 78
"f:\dev\libview-gl\LibView\src\LibView\qt\uic\ui_Qt_ExportCsvButton.h", "C++", 37, 7, 15, 59
"f:\dev\libview-gl\LibView\src\LibView\qt\uic\ui_Qt_GroupDisplay.h", "C++", 27, 7, 13, 47
"f:\dev\libview-gl\LibView\src\LibView\qt\uic\ui_Qt_HistogramDataDisplay.h", "C++", 27, 7, 13, 47
"f:\dev\libview-gl\LibView\src\LibView\qt\uic\ui_Qt_LibFileDataColumn.h", "C++", 27, 7, 13, 47
"f:\dev\libview-gl\LibView\src\LibView\qt\uic\ui_Qt_LibFileDataDisplay.h", "C++", 42, 7, 15, 64
"f:\dev\libview-gl\LibView\src\LibView\qt\uic\ui_Qt_LibFileHeader.h", "C++", 37, 7, 15, 59
"f:\dev\libview-gl\LibView\src\LibView\qt\uic\ui_Qt_LibFileSelectionBox.h", "C++", 42, 7, 15, 64
"f:\dev\libview-gl\LibView\src\LibView\qt\uic\ui_Qt_LibFileSelectionComboBox.h", "C++", 42, 7, 17, 66
"f:\dev\libview-gl\LibView\src\LibView\qt\uic\ui_Qt_LibFileVisibilityToggle.h", "C++", 46, 7, 17, 70
"f:\dev\libview-gl\LibView\src\LibView\qt\uic\ui_Qt_LoadLibFileButton.h", "C++", 37, 7, 15, 59
"f:\dev\libview-gl\LibView\src\LibView\qt\uic\ui_Qt_MainTabBar.h", "C++", 47, 7, 17, 71
"f:\dev\libview-gl\LibView\src\LibView\qt\uic\ui_Qt_MergeAndCreateNewFileButton.h", "C++", 37, 7, 15, 59
"f:\dev\libview-gl\LibView\src\LibView\qt\uic\ui_Qt_PinButton.h", "C++", 38, 7, 15, 60
"f:\dev\libview-gl\LibView\src\LibView\qt\uic\ui_Qt_PresetDataBox.h", "C++", 27, 7, 13, 47
"f:\dev\libview-gl\LibView\src\LibView\qt\uic\ui_Qt_PresetDataRow.h", "C++", 42, 7, 17, 66
"f:\dev\libview-gl\LibView\src\LibView\qt\uic\ui_Qt_PresetDisplayOverview.h", "C++", 27, 7, 13, 47
"f:\dev\libview-gl\LibView\src\LibView\qt\uic\ui_Qt_PresetSelectionBox.h", "C++", 27, 7, 13, 47
"f:\dev\libview-gl\LibView\src\LibView\qt\uic\ui_Qt_PresetTile.h", "C++", 42, 7, 17, 66
"f:\dev\libview-gl\LibView\src\LibView\qt\uic\ui_Qt_PresetTitle.h", "C++", 42, 7, 17, 66
"f:\dev\libview-gl\LibView\src\LibView\qt\uic\ui_Qt_PresetVisibilityToggle.h", "C++", 37, 7, 15, 59
"f:\dev\libview-gl\LibView\src\LibView\qt\uic\ui_Qt_RemoveButton.h", "C++", 37, 7, 15, 59
"f:\dev\libview-gl\LibView\src\LibView\qt\uic\ui_Qt_SearchBar.h", "C++", 46, 7, 17, 70
"f:\dev\libview-gl\LibView\src\LibView\qt\uic\ui_Qt_SelectGraphTypeComboBox.h", "C++", 36, 7, 15, 58
"f:\dev\libview-gl\LibView\src\LibView\qt\uic\ui_Qt_SideMenu.h", "C++", 27, 7, 13, 47
"f:\dev\libview-gl\LibView\src\LibView\test\Test.cpp", "C++", 4, 0, 0, 4
"f:\dev\libview-gl\LibView\src\LibView\test\core\TestIndexType.cpp", "C++", 43, 0, 13, 56
"f:\dev\libview-gl\LibView\src\LibView\test\model\AttributeMap\AttributeMapAddition.cpp", "C++", 74, 0, 24, 98
"f:\dev\libview-gl\LibView\src\LibView\test\model\AttributeMap\AttributeMapRemoval.cpp", "C++", 39, 0, 13, 52
"f:\dev\libview-gl\LibView\src\LibView\test\model\LibViewPair\LibViewPairTestInstanciationAndAssignment.cpp", "C++", 38, 0, 13, 51
"f:\dev\libview-gl\LibView\src\LibView\test\model\data_structure\BasicTable\BasicTableGetterSetter.cpp", "C++", 28, 0, 10, 38
"f:\dev\libview-gl\LibView\src\LibView\test\model\data_structure\CapacitiveLoadUnitAttribute\CapacitiveLoadUnitAttributeGetterSetter.cpp", "C++", 28, 0, 9, 37
"f:\dev\libview-gl\LibView\src\LibView\test\model\data_structure\CapacitiveLoadUnitAttribute\CapacitiveLoadUnitAttributeToString.cpp", "C++", 18, 0, 8, 26
"f:\dev\libview-gl\LibView\src\LibView\test\model\data_structure\Cell\CellGetterSetter.cpp", "C++", 27, 1, 18, 46
"f:\dev\libview-gl\LibView\src\LibView\test\model\data_structure\Ff\FfGetterSetter.cpp", "C++", 42, 0, 20, 62
"f:\dev\libview-gl\LibView\src\LibView\test\model\data_structure\InputVoltage\InputVoltageGetterSetter.cpp", "C++", 69, 0, 32, 101
"f:\dev\libview-gl\LibView\src\LibView\test\model\data_structure\InternalPower\InternalPowerGetterSetter.cpp", "C++", 27, 0, 11, 38
"f:\dev\libview-gl\LibView\src\LibView\test\model\data_structure\LeakagePower\LeakagePowerGetterSetter.cpp", "C++", 36, 0, 11, 47
"f:\dev\libview-gl\LibView\src\LibView\test\model\data_structure\LibertyFileData\LibertyFileDataGetterSetter.cpp", "C++", 32, 10, 10, 52
"f:\dev\libview-gl\LibView\src\LibView\test\model\data_structure\LibertyFileGroup\LibertyFileGroupGetterSetter.cpp", "C++", 42, 68, 14, 124
"f:\dev\libview-gl\LibView\src\LibView\test\model\data_structure\Library\LibraryGetterSetter.cpp", "C++", 232, 0, 61, 293
"f:\dev\libview-gl\LibView\src\LibView\test\model\data_structure\Library\LibraryToString.cpp", "C++", 138, 0, 17, 155
"f:\dev\libview-gl\LibView\src\LibView\test\model\translator\ast\AttributeIntendedUse.cpp", "C++", 61, 5, 26, 92
"f:\dev\libview-gl\LibView\src\LibView\test\model\translator\ast\GroupConstructorTest.cpp", "C++", 26, 3, 14, 43
"f:\dev\libview-gl\LibView\src\LibView\test\model\translator\parser\ConcreteStates\StartTypeReading.cpp", "C++", 19, 2, 15, 36
"f:\dev\libview-gl\LibView\src\LibView\test\model\translator\parser\StateTransition.cpp", "C++", 0, 0, 1, 1
"f:\dev\libview-gl\LibView\src\LibView\test\model\translator\reader\ReaderEdgeCaseUse.cpp", "C++", 34, 2, 18, 54
"f:\dev\libview-gl\LibView\src\LibView\test\model\translator\reader\ReaderIntendedUse.cpp", "C++", 34, 2, 12, 48
"f:\dev\libview-gl\LibView\src\LibView\test\model\translator\reader\ReaderNoASCII.cpp", "C++", 37, 2, 19, 58
"f:\dev\libview-gl\LibView\src\LibView\test\model\translator\reader\ReaderNoNextCharacter-.cpp", "C++", 37, 2, 24, 63
"f:\dev\libview-gl\LibView\src\LibView\test\model\translator\token\TokenInitialisation.cpp", "C++", 25, 2, 10, 37
"f:\dev\libview-gl\LibView\src\LibView\test\model\translator\tokenizer\ConstructingTransistion.cpp", "C++", 14, 1, 8, 23
"f:\dev\libview-gl\LibView\src\LibView\test\model\translator\tokenizer\ManualTestTokenizer.cpp", "C++", 29, 1, 9, 39
"f:\dev\libview-gl\LibView\src\LibView\test\model\translator\tokenizer\Tokennizing\AttributeCloser.cpp", "C++", 21, 0, 14, 35
"f:\dev\libview-gl\LibView\src\LibView\test\model\translator\tokenizer\Tokennizing\Float.cpp", "C++", 33, 0, 16, 49
"f:\dev\libview-gl\LibView\src\LibView\test\model\translator\tokenizer\Tokennizing\FloatS.cpp", "C++", 37, 0, 17, 54
"f:\dev\libview-gl\LibView\src\LibView\test\model\translator\tokenizer\Tokennizing\Integer.cpp", "C++", 89, 0, 27, 116
"f:\dev\libview-gl\LibView\src\LibView\test\model\translator\tokenizer\Tokennizing\LeftFieldEnlosure.cpp", "C++", 21, 0, 14, 35
"f:\dev\libview-gl\LibView\src\LibView\test\model\translator\tokenizer\Tokennizing\LeftParameterEnclosure.cpp", "C++", 21, 0, 14, 35
"f:\dev\libview-gl\LibView\src\LibView\test\model\translator\tokenizer\Tokennizing\LeftStatementEnclosure.cpp", "C++", 21, 0, 14, 35
"f:\dev\libview-gl\LibView\src\LibView\test\model\translator\tokenizer\Tokennizing\Name.cpp", "C++", 108, 2, 38, 148
"f:\dev\libview-gl\LibView\src\LibView\test\model\translator\tokenizer\Tokennizing\NewLine.cpp", "C++", 21, 0, 14, 35
"f:\dev\libview-gl\LibView\src\LibView\test\model\translator\tokenizer\Tokennizing\Operator.cpp", "C++", 33, 0, 17, 50
"f:\dev\libview-gl\LibView\src\LibView\test\model\translator\tokenizer\Tokennizing\ParameterSeperator.cpp", "C++", 21, 0, 14, 35
"f:\dev\libview-gl\LibView\src\LibView\test\model\translator\tokenizer\Tokennizing\RightFieldEnlosure.cpp", "C++", 21, 0, 14, 35
"f:\dev\libview-gl\LibView\src\LibView\test\model\translator\tokenizer\Tokennizing\RightParameterEnclosure.cpp", "C++", 21, 0, 14, 35
"f:\dev\libview-gl\LibView\src\LibView\test\model\translator\tokenizer\Tokennizing\RightStatementEnclosure.cpp", "C++", 21, 0, 14, 35
"f:\dev\libview-gl\LibView\src\LibView\test\model\translator\tokenizer\Tokennizing\RuleEscape.cpp", "C++", 21, 0, 14, 35
"f:\dev\libview-gl\LibView\src\LibView\test\model\translator\tokenizer\Tokennizing\SeperatorFieldRange.cpp", "C++", 21, 0, 14, 35
"f:\dev\libview-gl\LibView\src\LibView\test\model\translator\tokenizer\Tokennizing\Spacing.cpp", "C++", 29, 0, 16, 45
"f:\dev\libview-gl\LibView\src\LibView\test\model\translator\tokenizer\Tokennizing\StringEnclosure.cpp", "C++", 21, 0, 14, 35
"f:\dev\libview-gl\LibView\src\LibView\test\model\translator\tokenizer\Tokennizing\Tab.cpp", "C++", 29, 0, 16, 45
"f:\dev\libview-gl\LibView\src\LibView\test\presenter\PinningOfLibFileTest.cpp", "C++", 30, 0, 15, 45
"f:\dev\libview-gl\LibView\src\LibView\test\test_one\TestOne.cpp", "C++", 49, 0, 10, 59
"f:\dev\libview-gl\LibView\src\LibView\view\AttributeDisplayRow.cpp", "C++", 19, 0, 2, 21
"f:\dev\libview-gl\LibView\src\LibView\view\AttributeDisplayRow.h", "C++", 24, 0, 7, 31
"f:\dev\libview-gl\LibView\src\LibView\view\AttributeSelectionBox.cpp", "C++", 214, 48, 88, 350
"f:\dev\libview-gl\LibView\src\LibView\view\AttributeSelectionBox.h", "C++", 39, 1, 15, 55
"f:\dev\libview-gl\LibView\src\LibView\view\AttributeVisibilityToggle.cpp", "C++", 24, 0, 9, 33
"f:\dev\libview-gl\LibView\src\LibView\view\AttributeVisibilityToggle.h", "C++", 22, 0, 14, 36
"f:\dev\libview-gl\LibView\src\LibView\view\AttributeVisibilityToggleTreeItem.cpp", "C++", 13, 0, 4, 17
"f:\dev\libview-gl\LibView\src\LibView\view\AttributeVisibilityToggleTreeItem.h", "C++", 17, 0, 10, 27
"f:\dev\libview-gl\LibView\src\LibView\view\AttributeVisibilityToggleTreeItemModel.cpp", "C++", 29, 0, 7, 36
"f:\dev\libview-gl\LibView\src\LibView\view\AttributeVisibilityToggleTreeItemModel.h", "C++", 22, 0, 10, 32
"f:\dev\libview-gl\LibView\src\LibView\view\CalculateSigmaButton.cpp", "C++", 13, 0, 4, 17
"f:\dev\libview-gl\LibView\src\LibView\view\CalculateSigmaButton.h", "C++", 17, 0, 1, 18
"f:\dev\libview-gl\LibView\src\LibView\view\ContentDisplay.cpp", "C++", 23, 0, 8, 31
"f:\dev\libview-gl\LibView\src\LibView\view\ContentDisplay.h", "C++", 21, 0, 10, 31
"f:\dev\libview-gl\LibView\src\LibView\view\CreateNewLvfButton.cpp", "C++", 13, 0, 1, 14
"f:\dev\libview-gl\LibView\src\LibView\view\CreateNewLvfButton.h", "C++", 17, 0, 3, 20
"f:\dev\libview-gl\LibView\src\LibView\view\DeltaPercentToggle.cpp", "C++", 22, 0, 10, 32
"f:\dev\libview-gl\LibView\src\LibView\view\DeltaPercentToggle.h", "C++", 20, 0, 15, 35
"f:\dev\libview-gl\LibView\src\LibView\view\ExportCsvButton.cpp", "C++", 14, 0, 2, 16
"f:\dev\libview-gl\LibView\src\LibView\view\ExportCsvButton.h", "C++", 17, 0, 3, 20
"f:\dev\libview-gl\LibView\src\LibView\view\GroupDisplayContainer.cpp", "C++", 93, 0, 25, 118
"f:\dev\libview-gl\LibView\src\LibView\view\GroupDisplayContainer.h", "C++", 33, 0, 22, 55
"f:\dev\libview-gl\LibView\src\LibView\view\ILibViewGuiElement.h", "C++", 10, 0, 5, 15
"f:\dev\libview-gl\LibView\src\LibView\view\IView.cpp", "C++", 19, 21, 10, 50
"f:\dev\libview-gl\LibView\src\LibView\view\IView.h", "C++", 33, 14, 23, 70
"f:\dev\libview-gl\LibView\src\LibView\view\LibFileDataColumn.cpp", "C++", 84, 12, 20, 116
"f:\dev\libview-gl\LibView\src\LibView\view\LibFileDataColumn.h", "C++", 31, 0, 18, 49
"f:\dev\libview-gl\LibView\src\LibView\view\LibFileDataDisplay.cpp", "C++", 62, 9, 10, 81
"f:\dev\libview-gl\LibView\src\LibView\view\LibFileDataDisplay.h", "C++", 29, 1, 14, 44
"f:\dev\libview-gl\LibView\src\LibView\view\LibFileHeader.cpp", "C++", 16, 6, 6, 28
"f:\dev\libview-gl\LibView\src\LibView\view\LibFileHeader.h", "C++", 25, 4, 14, 43
"f:\dev\libview-gl\LibView\src\LibView\view\LibFileSelectionBox.cpp", "C++", 51, 0, 10, 61
"f:\dev\libview-gl\LibView\src\LibView\view\LibFileSelectionBox.h", "C++", 27, 0, 9, 36
"f:\dev\libview-gl\LibView\src\LibView\view\LibFileSelectionComboBox.cpp", "C++", 56, 1, 13, 70
"f:\dev\libview-gl\LibView\src\LibView\view\LibFileSelectionComboBox.h", "C++", 33, 0, 8, 41
"f:\dev\libview-gl\LibView\src\LibView\view\LibFileVisibilityToggle.cpp", "C++", 42, 0, 16, 58
"f:\dev\libview-gl\LibView\src\LibView\view\LibFileVisibilityToggle.h", "C++", 29, 0, 15, 44
"f:\dev\libview-gl\LibView\src\LibView\view\LibViewMainWindow.cpp", "C++", 87, 7, 46, 140
"f:\dev\libview-gl\LibView\src\LibView\view\LibViewMainWindow.h", "C++", 47, 0, 26, 73
"f:\dev\libview-gl\LibView\src\LibView\view\LoadLibFileButton.cpp", "C++", 30, 3, 11, 44
"f:\dev\libview-gl\LibView\src\LibView\view\LoadLibFileButton.h", "C++", 22, 2, 13, 37
"f:\dev\libview-gl\LibView\src\LibView\view\MainTabBar.cpp", "C++", 62, 1, 26, 89
"f:\dev\libview-gl\LibView\src\LibView\view\MainTabBar.h", "C++", 33, 0, 16, 49
"f:\dev\libview-gl\LibView\src\LibView\view\MergeAndCreateNewFileButton.cpp", "C++", 14, 0, 3, 17
"f:\dev\libview-gl\LibView\src\LibView\view\MergeAndCreateNewFileButton.h", "C++", 17, 0, 3, 20
"f:\dev\libview-gl\LibView\src\LibView\view\PinButton.cpp", "C++", 11, 0, 5, 16
"f:\dev\libview-gl\LibView\src\LibView\view\PinButton.h", "C++", 18, 0, 12, 30
"f:\dev\libview-gl\LibView\src\LibView\view\PresetButton.cpp", "C++", 18, 0, 3, 21
"f:\dev\libview-gl\LibView\src\LibView\view\PresetButton.h", "C++", 20, 0, 12, 32
"f:\dev\libview-gl\LibView\src\LibView\view\PresetDataBox.cpp", "C++", 22, 0, 6, 28
"f:\dev\libview-gl\LibView\src\LibView\view\PresetDataBox.h", "C++", 24, 0, 12, 36
"f:\dev\libview-gl\LibView\src\LibView\view\PresetDataRow.cpp", "C++", 16, 0, 7, 23
"f:\dev\libview-gl\LibView\src\LibView\view\PresetDataRow.h", "C++", 23, 0, 10, 33
"f:\dev\libview-gl\LibView\src\LibView\view\PresetDisplayOverview.cpp", "C++", 23, 0, 11, 34
"f:\dev\libview-gl\LibView\src\LibView\view\PresetDisplayOverview.h", "C++", 31, 0, 10, 41
"f:\dev\libview-gl\LibView\src\LibView\view\PresetSelectionBox.cpp", "C++", 33, 0, 10, 43
"f:\dev\libview-gl\LibView\src\LibView\view\PresetSelectionBox.h", "C++", 24, 0, 13, 37
"f:\dev\libview-gl\LibView\src\LibView\view\PresetTitle.cpp", "C++", 16, 0, 3, 19
"f:\dev\libview-gl\LibView\src\LibView\view\PresetTitle.h", "C++", 21, 0, 9, 30
"f:\dev\libview-gl\LibView\src\LibView\view\PresetVisibilityToggle.cpp", "C++", 20, 0, 4, 24
"f:\dev\libview-gl\LibView\src\LibView\view\PresetVisibilityToggle.h", "C++", 18, 0, 7, 25
"f:\dev\libview-gl\LibView\src\LibView\view\QtView.cpp", "C++", 117, 3, 40, 160
"f:\dev\libview-gl\LibView\src\LibView\view\QtView.h", "C++", 33, 1, 30, 64
"f:\dev\libview-gl\LibView\src\LibView\view\RemoveButton.cpp", "C++", 31, 2, 9, 42
"f:\dev\libview-gl\LibView\src\LibView\view\RemoveButton.h", "C++", 26, 0, 16, 42
"f:\dev\libview-gl\LibView\src\LibView\view\SearchBar.cpp", "C++", 31, 0, 11, 42
"f:\dev\libview-gl\LibView\src\LibView\view\SearchBar.h", "C++", 25, 0, 17, 42
"f:\dev\libview-gl\LibView\src\LibView\view\SelectGraphTypeComboBox.cpp", "C++", 14, 0, 4, 18
"f:\dev\libview-gl\LibView\src\LibView\view\SelectGraphTypeComboBox.h", "C++", 17, 0, 9, 26
"f:\dev\libview-gl\LibView\src\LibView\view\SideMenu.cpp", "C++", 58, 0, 13, 71
"f:\dev\libview-gl\LibView\src\LibView\view\SideMenu.h", "C++", 36, 0, 12, 48
"f:\dev\libview-gl\LibView\src\LibView\view\ViewKnower.h", "C++", 16, 0, 6, 22
"Total", "-", 18963, 4829, 6279, 30071